
(module SOIC127P600X175-8N (layer F.Cu) (tedit 61ECFBC2)
  (descr "")
  (fp_text reference REF** (at -0.795 -3.332 0) (layer F.SilkS)
    (effects (font (size 1.0 1.0) (thickness 0.15)))
  )
  (fp_text value SOIC127P600X175-8N (at 7.46 3.332 0) (layer F.Fab)
    (effects (font (size 1.0 1.0) (thickness 0.15)))
  )
  (pad 1 smd roundrect (at -2.475 -1.905) (roundrect_rratio 0.07) (size 1.97 0.59) (layers F.Cu F.Mask F.Paste))
  (pad 2 smd roundrect (at -2.475 -0.635) (roundrect_rratio 0.07) (size 1.97 0.59) (layers F.Cu F.Mask F.Paste))
  (pad 3 smd roundrect (at -2.475 0.635) (roundrect_rratio 0.07) (size 1.97 0.59) (layers F.Cu F.Mask F.Paste))
  (pad 4 smd roundrect (at -2.475 1.905) (roundrect_rratio 0.07) (size 1.97 0.59) (layers F.Cu F.Mask F.Paste))
  (pad 5 smd roundrect (at 2.475 1.905) (roundrect_rratio 0.07) (size 1.97 0.59) (layers F.Cu F.Mask F.Paste))
  (pad 6 smd roundrect (at 2.475 0.635) (roundrect_rratio 0.07) (size 1.97 0.59) (layers F.Cu F.Mask F.Paste))
  (pad 7 smd roundrect (at 2.475 -0.635) (roundrect_rratio 0.07) (size 1.97 0.59) (layers F.Cu F.Mask F.Paste))
  (pad 8 smd roundrect (at 2.475 -1.905) (roundrect_rratio 0.07) (size 1.97 0.59) (layers F.Cu F.Mask F.Paste))
  (fp_circle (center -4.445 -2.495) (end -4.345 -2.495) (layer F.SilkS) (width 0.2))
  (fp_circle (center -4.445 -2.495) (end -4.345 -2.495) (layer F.Fab) (width 0.2))
  (fp_line (start -2.0 -2.5) (end 2.0 -2.5) (layer F.Fab) (width 0.127))
  (fp_line (start -2.0 2.5) (end 2.0 2.5) (layer F.Fab) (width 0.127))
  (fp_line (start -2.0 -2.52) (end 2.0 -2.52) (layer F.SilkS) (width 0.127))
  (fp_line (start -2.0 2.52) (end 2.0 2.52) (layer F.SilkS) (width 0.127))
  (fp_line (start -2.0 -2.5) (end -2.0 2.5) (layer F.Fab) (width 0.127))
  (fp_line (start 2.0 -2.5) (end 2.0 2.5) (layer F.Fab) (width 0.127))
  (fp_line (start -3.71 -2.75) (end 3.71 -2.75) (layer F.CrtYd) (width 0.05))
  (fp_line (start -3.71 2.75) (end 3.71 2.75) (layer F.CrtYd) (width 0.05))
  (fp_line (start -3.71 -2.75) (end -3.71 2.75) (layer F.CrtYd) (width 0.05))
  (fp_line (start 3.71 -2.75) (end 3.71 2.75) (layer F.CrtYd) (width 0.05))
)