Reference, Quantity, Value, Footprint, Datasheet
"C1,C5 ",2,4.7uF,Resistor_SMD:R_1210_3225Metric,
C2 ,1,4.7uF,Capacitor_SMD:C_0603_1608Metric,
C3 ,1,0.01uF,Resistor_SMD:R_0603_1608Metric,
C4 ,1,1nF,Resistor_SMD:R_0603_1608Metric,
D1 ,1,D_Schottky,Diode_SMD:D_PowerDI-5,
J1 ,1,Conn_01x02,Connector_Molex:Molex_KK-254_AE-6410-02A_1x02_P2.54mm_Vertical,
J2 ,1,Screw_Terminal_01x02,"TerminalBlock_Phoenix:TerminalBlock_Phoenix_MKDS-1,5-2-5.08_1x02_P5.08mm_Horizontal",
L1 ,1,L,Inductor_SMD:L_Bourns_SRR1208_12.7x12.7mm,
Q1 ,1,Si7450DP,Package_SO:PowerPAK_SO-8_Single,https://www.vishay.com/docs/71432/si7450dp.pdf
Q2 ,1,Q_NMOS_GSD,Package_TO_SOT_SMD:SOT-23,
"R1,R2,R7,R8 ",4,R,Resistor_SMD:R_0603_1608Metric,
"R3,R9 ",2,0,Resistor_SMD:R_0603_1608Metric,
R4 ,1,100k,Resistor_SMD:R_0603_1608Metric,
R5 ,1,28.7k,Resistor_SMD:R_0603_1608Metric,
R6 ,1,10k,Resistor_SMD:R_0603_1608Metric,
"RLED1,RSENSE1 ",2,R,Resistor_SMD:R_2512_6332Metric_Pad1.40x3.35mm_HandSolder,
"TP1,TP2 ",2,TestPoint,TestPoint:TestPoint_Pad_2.0x2.0mm,
U1 ,1,LT3756xUD-2,Package_DFN_QFN:QFN-16-1EP_3x3mm_P0.5mm_EP1.45x1.45mm,https://www.analog.com/media/en/technical-documentation/data-sheets/375612fb.pdf
