Reference, Quantity, Value, Footprint, Datasheet
C1 C2 ,2,"4.7uF","Resistor_SMD:R_1210_3225Metric",""
C10 ,1,"NS","Resistor_SMD:R_1210_3225Metric",""
C11 ,1,"820pF","Capacitor_SMD:C_0603_1608Metric",""
C12 ,1,"1pF (NS)","Capacitor_SMD:C_0603_1608Metric",""
C3 ,1,"0.01uF","Resistor_SMD:R_0603_1608Metric",""
C4 ,1,"1nF","Resistor_SMD:R_0603_1608Metric",""
C5 C8 ,2,"0.1uF","Capacitor_SMD:C_0603_1608Metric",""
C6 C7 ,2,"2.2uF","Resistor_SMD:R_1210_3225Metric",""
C9 ,1,"33uF","Capacitor_Tantalum_SMD:CP_EIA-7343-43_Kemet-X",""
D1 ,1,"D_Schottky_AAK","Package_TO_SOT_SMD:TO-277A",""
D2 ,1,"D_Schottky","Diode_SMD:D_SMB",""
D3 ,1,"LED","LED_SMD:LED_0603_1608Metric",""
J1 ,1,"Screw_Terminal_01x02","Connector_AMASS:AMASS_XT30PW-M_1x02_P2.50mm_Horizontal",""
J2 ,1,"Conn_01x04","Connector_Molex:Molex_KK-254_AE-6410-04A_1x04_P2.54mm_Vertical",""
J3 ,1,"Conn_01x07","Connector_JST:JST_GH_SM07B-GHS-TB_1x07-1MP_P1.25mm_Horizontal",""
J4 ,1,"Conn_01x02","Connector_Molex:Molex_Micro-Fit_3.0_43650-0200_1x02_P3.00mm_Horizontal",""
L1 ,1,"L","Inductor_SMD:L_Bourns_SRP1770TA_16.9x16.9mm",""
L2 ,1,"33uH","Inductor_SMD:L_12x12mm_H6mm",""
Q1 ,1,"SIR606BDP","Package_SO:PowerPAK_SO-8_Single","https://www.vishay.com/docs/71432/si7450dp.pdf"
Q2 ,1,"Q_PNP_BCE","Package_TO_SOT_SMD:SOT-23",""
Q3 ,1,"FDT86113LZ","Package_TO_SOT_SMD:SOT-223-3_TabPin2",""
R1 R2 ,2,"1M","Resistor_SMD:R_0603_1608Metric",""
R11 ,1,"28.7k","Resistor_SMD:R_0603_1608Metric",""
R13 ,1,"124k","Resistor_SMD:R_0603_1608Metric",""
R14 ,1,"100k","Resistor_SMD:R_0603_1608Metric",""
R15 ,1,"8.87k","Resistor_SMD:R_0603_1608Metric",""
R16 ,1,"13.7k","Resistor_SMD:R_0603_1608Metric",""
R17 ,1,"200k","Resistor_SMD:R_0603_1608Metric",""
R18 ,1,"169k","Resistor_SMD:R_0603_1608Metric",""
R19 ,1,"300","Resistor_SMD:R_0603_1608Metric",""
R3 ,1,"184k","Resistor_SMD:R_0603_1608Metric",""
R4 R10 ,2,"0","Resistor_SMD:R_0603_1608Metric",""
R5 ,1,"14k","Resistor_SMD:R_0603_1608Metric",""
R6 ,1,"1k","Resistor_SMD:R_0603_1608Metric",""
R7 ,1,"0.075","Resistor_SMD:R_2010_5025Metric",""
R8 R12 R20 ,3,"10k","Resistor_SMD:R_0603_1608Metric",""
R9 ,1,"0.025","Resistor_SMD:R_2010_5025Metric",""
TP1 ,1,"TestPoint","TestPoint:TestPoint_Pad_D1.5mm",""
U1 ,1,"MP4558DQ-LF-P","Package_DFN_QFN:DFN-10-1EP_3x3mm_P0.5mm_EP1.7x2.5mm",""
U2 ,1,"LT3756xMSE-1","Package_SO:MSOP-16-1EP_3x4mm_P0.5mm_EP1.65x2.85mm","https://www.analog.com/media/en/technical-documentation/data-sheets/375612fb.pdf"