(kicad_sch (version 20211123) (generator eeschema)

  (uuid c618429a-9bc2-4202-a742-fd777f90bf16)

  (paper "A4")

  (lib_symbols
    (symbol "Connector_Generic:Conn_01x01" (pin_names (offset 1.016) hide) (in_bom yes) (on_board yes)
      (property "Reference" "J" (id 0) (at 0 2.54 0)
        (effects (font (size 1.27 1.27)))
      )
      (property "Value" "Conn_01x01" (id 1) (at 0 -2.54 0)
        (effects (font (size 1.27 1.27)))
      )
      (property "Footprint" "" (id 2) (at 0 0 0)
        (effects (font (size 1.27 1.27)) hide)
      )
      (property "Datasheet" "~" (id 3) (at 0 0 0)
        (effects (font (size 1.27 1.27)) hide)
      )
      (property "ki_keywords" "connector" (id 4) (at 0 0 0)
        (effects (font (size 1.27 1.27)) hide)
      )
      (property "ki_description" "Generic connector, single row, 01x01, script generated (kicad-library-utils/schlib/autogen/connector/)" (id 5) (at 0 0 0)
        (effects (font (size 1.27 1.27)) hide)
      )
      (property "ki_fp_filters" "Connector*:*_1x??_*" (id 6) (at 0 0 0)
        (effects (font (size 1.27 1.27)) hide)
      )
      (symbol "Conn_01x01_1_1"
        (rectangle (start -1.27 0.127) (end 0 -0.127)
          (stroke (width 0.1524) (type default) (color 0 0 0 0))
          (fill (type none))
        )
        (rectangle (start -1.27 1.27) (end 1.27 -1.27)
          (stroke (width 0.254) (type default) (color 0 0 0 0))
          (fill (type background))
        )
        (pin passive line (at -5.08 0 0) (length 3.81)
          (name "Pin_1" (effects (font (size 1.27 1.27))))
          (number "1" (effects (font (size 1.27 1.27))))
        )
      )
    )
    (symbol "Device:LED_Pad" (pin_names (offset 1.016) hide) (in_bom yes) (on_board yes)
      (property "Reference" "D" (id 0) (at 0 5.715 0)
        (effects (font (size 1.27 1.27)))
      )
      (property "Value" "LED_Pad" (id 1) (at 0 3.81 0)
        (effects (font (size 1.27 1.27)))
      )
      (property "Footprint" "" (id 2) (at 0 0 0)
        (effects (font (size 1.27 1.27)) hide)
      )
      (property "Datasheet" "~" (id 3) (at 0 0 0)
        (effects (font (size 1.27 1.27)) hide)
      )
      (property "ki_keywords" "LED diode pad" (id 4) (at 0 0 0)
        (effects (font (size 1.27 1.27)) hide)
      )
      (property "ki_description" "Light emitting diode with pad" (id 5) (at 0 0 0)
        (effects (font (size 1.27 1.27)) hide)
      )
      (property "ki_fp_filters" "LED* LED_SMD:* LED_THT:*" (id 6) (at 0 0 0)
        (effects (font (size 1.27 1.27)) hide)
      )
      (symbol "LED_Pad_0_1"
        (polyline
          (pts
            (xy -1.27 -1.27)
            (xy -1.27 1.27)
          )
          (stroke (width 0.254) (type default) (color 0 0 0 0))
          (fill (type none))
        )
        (polyline
          (pts
            (xy -1.27 0)
            (xy 1.27 0)
          )
          (stroke (width 0) (type default) (color 0 0 0 0))
          (fill (type none))
        )
        (polyline
          (pts
            (xy 0 -2.54)
            (xy 0 -2.032)
          )
          (stroke (width 0) (type default) (color 0 0 0 0))
          (fill (type none))
        )
        (polyline
          (pts
            (xy -2.032 -0.508)
            (xy -2.032 -2.032)
            (xy 2.032 -2.032)
            (xy 2.032 -0.508)
          )
          (stroke (width 0) (type default) (color 0 0 0 0))
          (fill (type none))
        )
        (polyline
          (pts
            (xy 1.27 -1.27)
            (xy 1.27 1.27)
            (xy -1.27 0)
            (xy 1.27 -1.27)
          )
          (stroke (width 0.254) (type default) (color 0 0 0 0))
          (fill (type none))
        )
        (polyline
          (pts
            (xy -0.889 1.397)
            (xy 0.635 2.921)
            (xy -0.127 2.921)
            (xy 0.635 2.921)
            (xy 0.635 2.159)
          )
          (stroke (width 0) (type default) (color 0 0 0 0))
          (fill (type none))
        )
        (polyline
          (pts
            (xy 0.381 1.397)
            (xy 1.905 2.921)
            (xy 1.143 2.921)
            (xy 1.905 2.921)
            (xy 1.905 2.159)
          )
          (stroke (width 0) (type default) (color 0 0 0 0))
          (fill (type none))
        )
      )
      (symbol "LED_Pad_1_1"
        (pin passive line (at -3.81 0 0) (length 2.54)
          (name "K" (effects (font (size 1.27 1.27))))
          (number "1" (effects (font (size 1.27 1.27))))
        )
        (pin passive line (at 3.81 0 180) (length 2.54)
          (name "A" (effects (font (size 1.27 1.27))))
          (number "2" (effects (font (size 1.27 1.27))))
        )
        (pin passive line (at 0 -5.08 90) (length 2.54)
          (name "PAD" (effects (font (size 1.27 1.27))))
          (number "3" (effects (font (size 1.27 1.27))))
        )
      )
    )
    (symbol "power:GND" (power) (pin_names (offset 0)) (in_bom yes) (on_board yes)
      (property "Reference" "#PWR" (id 0) (at 0 -6.35 0)
        (effects (font (size 1.27 1.27)) hide)
      )
      (property "Value" "GND" (id 1) (at 0 -3.81 0)
        (effects (font (size 1.27 1.27)))
      )
      (property "Footprint" "" (id 2) (at 0 0 0)
        (effects (font (size 1.27 1.27)) hide)
      )
      (property "Datasheet" "" (id 3) (at 0 0 0)
        (effects (font (size 1.27 1.27)) hide)
      )
      (property "ki_keywords" "power-flag" (id 4) (at 0 0 0)
        (effects (font (size 1.27 1.27)) hide)
      )
      (property "ki_description" "Power symbol creates a global label with name \"GND\" , ground" (id 5) (at 0 0 0)
        (effects (font (size 1.27 1.27)) hide)
      )
      (symbol "GND_0_1"
        (polyline
          (pts
            (xy 0 0)
            (xy 0 -1.27)
            (xy 1.27 -1.27)
            (xy 0 -2.54)
            (xy -1.27 -1.27)
            (xy 0 -1.27)
          )
          (stroke (width 0) (type default) (color 0 0 0 0))
          (fill (type none))
        )
      )
      (symbol "GND_1_1"
        (pin power_in line (at 0 0 270) (length 0) hide
          (name "GND" (effects (font (size 1.27 1.27))))
          (number "1" (effects (font (size 1.27 1.27))))
        )
      )
    )
    (symbol "power:VSS" (power) (pin_names (offset 0)) (in_bom yes) (on_board yes)
      (property "Reference" "#PWR" (id 0) (at 0 -3.81 0)
        (effects (font (size 1.27 1.27)) hide)
      )
      (property "Value" "VSS" (id 1) (at 0 3.81 0)
        (effects (font (size 1.27 1.27)))
      )
      (property "Footprint" "" (id 2) (at 0 0 0)
        (effects (font (size 1.27 1.27)) hide)
      )
      (property "Datasheet" "" (id 3) (at 0 0 0)
        (effects (font (size 1.27 1.27)) hide)
      )
      (property "ki_keywords" "power-flag" (id 4) (at 0 0 0)
        (effects (font (size 1.27 1.27)) hide)
      )
      (property "ki_description" "Power symbol creates a global label with name \"VSS\"" (id 5) (at 0 0 0)
        (effects (font (size 1.27 1.27)) hide)
      )
      (symbol "VSS_0_1"
        (polyline
          (pts
            (xy 0 0)
            (xy 0 2.54)
          )
          (stroke (width 0) (type default) (color 0 0 0 0))
          (fill (type none))
        )
        (polyline
          (pts
            (xy 0.762 1.27)
            (xy -0.762 1.27)
            (xy 0 2.54)
            (xy 0.762 1.27)
          )
          (stroke (width 0) (type default) (color 0 0 0 0))
          (fill (type outline))
        )
      )
      (symbol "VSS_1_1"
        (pin power_in line (at 0 0 90) (length 0) hide
          (name "VSS" (effects (font (size 1.27 1.27))))
          (number "1" (effects (font (size 1.27 1.27))))
        )
      )
    )
  )

  (junction (at 171.45 82.55) (diameter 0) (color 0 0 0 0)
    (uuid 1922f46f-69c8-4876-b9ec-fa17c67faae7)
  )
  (junction (at 120.65 82.55) (diameter 0) (color 0 0 0 0)
    (uuid 26c52999-d806-4dde-9880-822e86422e0a)
  )
  (junction (at 171.45 104.14) (diameter 0) (color 0 0 0 0)
    (uuid 37661fa9-070c-4719-b39c-185d56b11037)
  )
  (junction (at 120.65 93.98) (diameter 0) (color 0 0 0 0)
    (uuid 47fb99e1-1a5b-406f-a00a-6774d7c81997)
  )
  (junction (at 151.13 82.55) (diameter 0) (color 0 0 0 0)
    (uuid 6219106c-8e07-43d0-96d5-d0e7cc08aadb)
  )
  (junction (at 171.45 93.98) (diameter 0) (color 0 0 0 0)
    (uuid 683b4631-baab-46ff-b406-40e3885bfbb6)
  )
  (junction (at 161.29 93.98) (diameter 0) (color 0 0 0 0)
    (uuid 6ca0c988-a5b8-4d7f-86ac-c6467983b6ef)
  )
  (junction (at 161.29 104.14) (diameter 0) (color 0 0 0 0)
    (uuid 7666c79d-0bf3-4da8-bae7-303a2799ebf0)
  )
  (junction (at 151.13 104.14) (diameter 0) (color 0 0 0 0)
    (uuid 7b9c9c74-2592-407f-be01-207f476e6332)
  )
  (junction (at 130.81 82.55) (diameter 0) (color 0 0 0 0)
    (uuid 872238b1-749c-44db-bfa4-95379a417e7f)
  )
  (junction (at 130.81 93.98) (diameter 0) (color 0 0 0 0)
    (uuid 97e7b6fd-aff6-4c31-b42d-c7702f5de4c2)
  )
  (junction (at 181.61 104.14) (diameter 0) (color 0 0 0 0)
    (uuid a5c79e55-b5c6-420d-b8bd-eccacbe8f1d3)
  )
  (junction (at 151.13 93.98) (diameter 0) (color 0 0 0 0)
    (uuid aeaa6731-c267-427b-a4fb-de2e1c82ea09)
  )
  (junction (at 130.81 104.14) (diameter 0) (color 0 0 0 0)
    (uuid bcffc7ea-6c24-4e57-a13c-fa0d615bcf3e)
  )
  (junction (at 181.61 93.98) (diameter 0) (color 0 0 0 0)
    (uuid c865ae39-70fa-4712-bee0-bc7752a9b23c)
  )
  (junction (at 140.97 93.98) (diameter 0) (color 0 0 0 0)
    (uuid dda38ec3-40c3-4690-be1d-2d67a5318142)
  )
  (junction (at 181.61 82.55) (diameter 0) (color 0 0 0 0)
    (uuid e5a861cc-475f-4527-85de-bc87022d7f51)
  )
  (junction (at 120.65 104.14) (diameter 0) (color 0 0 0 0)
    (uuid e9ebb628-5759-4846-a5a6-f46ac6afccc9)
  )
  (junction (at 161.29 82.55) (diameter 0) (color 0 0 0 0)
    (uuid eaca086c-d205-4ba0-b4ec-d0f5ba417cc4)
  )
  (junction (at 140.97 104.14) (diameter 0) (color 0 0 0 0)
    (uuid ef23015a-eabc-4d96-9a69-cac983d2c998)
  )
  (junction (at 140.97 82.55) (diameter 0) (color 0 0 0 0)
    (uuid f46c3f1e-f245-489e-b0f0-dd98d524b3f0)
  )

  (wire (pts (xy 114.3 99.06) (xy 116.84 99.06))
    (stroke (width 0) (type default) (color 0 0 0 0))
    (uuid 082d2b58-b1ce-4489-b164-984922624dd7)
  )
  (wire (pts (xy 185.42 99.06) (xy 187.96 99.06))
    (stroke (width 0) (type default) (color 0 0 0 0))
    (uuid 0aaf8778-dee0-438a-8c70-9a66b19c07b2)
  )
  (wire (pts (xy 104.14 101.6) (xy 104.14 109.22))
    (stroke (width 0) (type default) (color 0 0 0 0))
    (uuid 18a0e168-c1a1-4b54-8fd5-24619494795f)
  )
  (wire (pts (xy 161.29 82.55) (xy 171.45 82.55))
    (stroke (width 0) (type default) (color 0 0 0 0))
    (uuid 2577661e-1fbb-45ef-b41d-88d48dc075bd)
  )
  (wire (pts (xy 171.45 82.55) (xy 181.61 82.55))
    (stroke (width 0) (type default) (color 0 0 0 0))
    (uuid 36e440a2-2c86-44e1-9c7a-500be9f3fcc9)
  )
  (wire (pts (xy 110.49 104.14) (xy 120.65 104.14))
    (stroke (width 0) (type default) (color 0 0 0 0))
    (uuid 3a2b4a3d-64cb-445f-b1d9-59aa6dedef3a)
  )
  (wire (pts (xy 124.46 109.22) (xy 127 109.22))
    (stroke (width 0) (type default) (color 0 0 0 0))
    (uuid 3c99587f-26e3-4d2d-baf3-3fd839a71c5a)
  )
  (wire (pts (xy 116.84 71.12) (xy 119.38 71.12))
    (stroke (width 0) (type default) (color 0 0 0 0))
    (uuid 423343a9-745e-417f-b295-206c7c9b3fc9)
  )
  (wire (pts (xy 130.81 93.98) (xy 140.97 93.98))
    (stroke (width 0) (type default) (color 0 0 0 0))
    (uuid 447d92c3-0c2d-4a39-a40b-0cf2c98e21f2)
  )
  (wire (pts (xy 134.62 109.22) (xy 137.16 109.22))
    (stroke (width 0) (type default) (color 0 0 0 0))
    (uuid 4830f2ae-c41a-43c0-b53d-d39bd3738b21)
  )
  (wire (pts (xy 130.81 104.14) (xy 140.97 104.14))
    (stroke (width 0) (type default) (color 0 0 0 0))
    (uuid 4b65b822-8150-4cf2-81df-344e7310f8be)
  )
  (wire (pts (xy 114.3 109.22) (xy 116.84 109.22))
    (stroke (width 0) (type default) (color 0 0 0 0))
    (uuid 4dfe2dce-2208-45f8-af6c-9aa79f4b56fb)
  )
  (wire (pts (xy 140.97 104.14) (xy 151.13 104.14))
    (stroke (width 0) (type default) (color 0 0 0 0))
    (uuid 4eb7a97b-4c22-4bd0-befc-262a2aaaf1f8)
  )
  (wire (pts (xy 165.1 87.63) (xy 167.64 87.63))
    (stroke (width 0) (type default) (color 0 0 0 0))
    (uuid 53ce912c-bb63-4bc0-aa1b-6fc0237c204a)
  )
  (wire (pts (xy 110.49 82.55) (xy 120.65 82.55))
    (stroke (width 0) (type default) (color 0 0 0 0))
    (uuid 57abb12f-b702-42f6-a876-aae315e08e6b)
  )
  (wire (pts (xy 110.49 93.98) (xy 120.65 93.98))
    (stroke (width 0) (type default) (color 0 0 0 0))
    (uuid 57b5e0b0-9ed2-4a45-ac4b-386c382d9c63)
  )
  (wire (pts (xy 144.78 109.22) (xy 147.32 109.22))
    (stroke (width 0) (type default) (color 0 0 0 0))
    (uuid 5ecd89e7-929c-4ff9-b074-4fdd67e7ed6f)
  )
  (wire (pts (xy 120.65 104.14) (xy 130.81 104.14))
    (stroke (width 0) (type default) (color 0 0 0 0))
    (uuid 5ed3a8be-b423-4050-8545-e6413d8b9ee8)
  )
  (wire (pts (xy 187.96 99.06) (xy 187.96 101.6))
    (stroke (width 0) (type default) (color 0 0 0 0))
    (uuid 6018a84a-d3d4-43ea-8be1-ef7b016a09d1)
  )
  (wire (pts (xy 151.13 82.55) (xy 161.29 82.55))
    (stroke (width 0) (type default) (color 0 0 0 0))
    (uuid 62e5b484-640c-422a-97ab-0262111a1e97)
  )
  (wire (pts (xy 104.14 90.17) (xy 104.14 99.06))
    (stroke (width 0) (type default) (color 0 0 0 0))
    (uuid 6938a61d-aeb3-44ff-b88e-98b11cbe0e91)
  )
  (wire (pts (xy 187.96 110.49) (xy 187.96 109.22))
    (stroke (width 0) (type default) (color 0 0 0 0))
    (uuid 69d329d9-2d3f-4a83-836c-8731e0501552)
  )
  (wire (pts (xy 104.14 99.06) (xy 106.68 99.06))
    (stroke (width 0) (type default) (color 0 0 0 0))
    (uuid 7107f2d6-3a65-48ff-ae70-2a8eae11e6ec)
  )
  (wire (pts (xy 134.62 99.06) (xy 137.16 99.06))
    (stroke (width 0) (type default) (color 0 0 0 0))
    (uuid 7374c63f-08ff-4c8f-bfa0-7e30156a81fa)
  )
  (wire (pts (xy 181.61 82.55) (xy 193.04 82.55))
    (stroke (width 0) (type default) (color 0 0 0 0))
    (uuid 77bda3c1-82da-4102-a192-4ed823193a6e)
  )
  (wire (pts (xy 193.04 93.98) (xy 193.04 92.71))
    (stroke (width 0) (type default) (color 0 0 0 0))
    (uuid 7a3bec4b-d9ce-43c5-a8ba-499ce8748695)
  )
  (wire (pts (xy 154.94 99.06) (xy 157.48 99.06))
    (stroke (width 0) (type default) (color 0 0 0 0))
    (uuid 7a93ceff-5ad9-42ec-ad55-bb1f4d52573c)
  )
  (wire (pts (xy 154.94 109.22) (xy 157.48 109.22))
    (stroke (width 0) (type default) (color 0 0 0 0))
    (uuid 8168fcd9-b2d5-4055-bd28-870d100be9f3)
  )
  (wire (pts (xy 134.62 87.63) (xy 137.16 87.63))
    (stroke (width 0) (type default) (color 0 0 0 0))
    (uuid 81b584b4-e4d8-4925-9b7c-1b540cacbcca)
  )
  (wire (pts (xy 165.1 109.22) (xy 167.64 109.22))
    (stroke (width 0) (type default) (color 0 0 0 0))
    (uuid 841b2a1c-96cc-43c3-815a-e3a38faab0c6)
  )
  (wire (pts (xy 104.14 109.22) (xy 106.68 109.22))
    (stroke (width 0) (type default) (color 0 0 0 0))
    (uuid 88cf04d0-7764-4dc6-9291-b5d667ffb73a)
  )
  (wire (pts (xy 185.42 87.63) (xy 187.96 87.63))
    (stroke (width 0) (type default) (color 0 0 0 0))
    (uuid 897e96de-2b16-4ebc-8042-f6f2ea5a03ca)
  )
  (wire (pts (xy 193.04 104.14) (xy 193.04 101.6))
    (stroke (width 0) (type default) (color 0 0 0 0))
    (uuid 8cb9e092-2f5e-4e57-8e16-eeddbbf5d998)
  )
  (wire (pts (xy 175.26 99.06) (xy 177.8 99.06))
    (stroke (width 0) (type default) (color 0 0 0 0))
    (uuid 91a652a7-2e4d-49f6-8e0b-a4c94883c80e)
  )
  (wire (pts (xy 120.65 82.55) (xy 130.81 82.55))
    (stroke (width 0) (type default) (color 0 0 0 0))
    (uuid 9235a971-b3a8-4305-b5cb-f73a458ca70f)
  )
  (wire (pts (xy 161.29 93.98) (xy 171.45 93.98))
    (stroke (width 0) (type default) (color 0 0 0 0))
    (uuid 9731be4a-6b79-4af3-a1d5-f98929427d2e)
  )
  (wire (pts (xy 130.81 82.55) (xy 140.97 82.55))
    (stroke (width 0) (type default) (color 0 0 0 0))
    (uuid 99987513-b4c8-45b4-acb9-749987ea76e5)
  )
  (wire (pts (xy 165.1 99.06) (xy 167.64 99.06))
    (stroke (width 0) (type default) (color 0 0 0 0))
    (uuid 9caa540c-a740-43f6-b14b-95a9e9f837ed)
  )
  (wire (pts (xy 161.29 104.14) (xy 171.45 104.14))
    (stroke (width 0) (type default) (color 0 0 0 0))
    (uuid a4c1c23e-b42f-4d3d-934e-4e661bdddf93)
  )
  (wire (pts (xy 124.46 87.63) (xy 127 87.63))
    (stroke (width 0) (type default) (color 0 0 0 0))
    (uuid aaebb218-4357-4278-af3a-eb55e001fa56)
  )
  (wire (pts (xy 120.65 93.98) (xy 130.81 93.98))
    (stroke (width 0) (type default) (color 0 0 0 0))
    (uuid abce488b-448d-4bdf-a83f-9c80fa36d6a9)
  )
  (wire (pts (xy 181.61 104.14) (xy 193.04 104.14))
    (stroke (width 0) (type default) (color 0 0 0 0))
    (uuid ac8ed3f9-d897-433a-84a5-d44f04f1b0c1)
  )
  (wire (pts (xy 175.26 109.22) (xy 177.8 109.22))
    (stroke (width 0) (type default) (color 0 0 0 0))
    (uuid bb861f3e-f5c4-41ff-8085-a5fb715249a0)
  )
  (wire (pts (xy 140.97 82.55) (xy 151.13 82.55))
    (stroke (width 0) (type default) (color 0 0 0 0))
    (uuid bffe3946-bd3e-4cbd-ab51-cc2c717ec396)
  )
  (wire (pts (xy 151.13 93.98) (xy 161.29 93.98))
    (stroke (width 0) (type default) (color 0 0 0 0))
    (uuid c346f0b9-8184-4b45-98a5-2f18ab20cf62)
  )
  (wire (pts (xy 124.46 99.06) (xy 127 99.06))
    (stroke (width 0) (type default) (color 0 0 0 0))
    (uuid c509b585-b206-415f-9398-38d917bc0d2d)
  )
  (wire (pts (xy 187.96 87.63) (xy 187.96 90.17))
    (stroke (width 0) (type default) (color 0 0 0 0))
    (uuid c94ff306-ed1c-4e60-b0fa-ceeafe1fb9ec)
  )
  (wire (pts (xy 185.42 109.22) (xy 187.96 109.22))
    (stroke (width 0) (type default) (color 0 0 0 0))
    (uuid cee67cc8-af89-4d2e-9269-7933895c6c42)
  )
  (wire (pts (xy 114.3 87.63) (xy 116.84 87.63))
    (stroke (width 0) (type default) (color 0 0 0 0))
    (uuid cfbec13b-b10c-4cf6-9239-00c8d1ee4264)
  )
  (wire (pts (xy 187.96 101.6) (xy 104.14 101.6))
    (stroke (width 0) (type default) (color 0 0 0 0))
    (uuid d148912b-4d8a-4b24-bf70-36fe436a81a9)
  )
  (wire (pts (xy 104.14 87.63) (xy 106.68 87.63))
    (stroke (width 0) (type default) (color 0 0 0 0))
    (uuid d3b6b86a-2704-46d4-a890-1f66fb798da2)
  )
  (wire (pts (xy 171.45 93.98) (xy 181.61 93.98))
    (stroke (width 0) (type default) (color 0 0 0 0))
    (uuid d49b53eb-fad5-4254-842d-e9d123569e5a)
  )
  (wire (pts (xy 187.96 90.17) (xy 104.14 90.17))
    (stroke (width 0) (type default) (color 0 0 0 0))
    (uuid d49e848d-04f2-4473-b6d0-ae84a3615ad2)
  )
  (wire (pts (xy 154.94 87.63) (xy 157.48 87.63))
    (stroke (width 0) (type default) (color 0 0 0 0))
    (uuid d659dd2b-7711-4435-8b05-b90bba6df34b)
  )
  (wire (pts (xy 175.26 87.63) (xy 177.8 87.63))
    (stroke (width 0) (type default) (color 0 0 0 0))
    (uuid d89d1fa7-fced-4906-98d0-9fc8d9b83a87)
  )
  (wire (pts (xy 140.97 93.98) (xy 151.13 93.98))
    (stroke (width 0) (type default) (color 0 0 0 0))
    (uuid de3fdb98-35c1-4999-9f2b-56324e031e2b)
  )
  (wire (pts (xy 116.84 62.23) (xy 119.38 62.23))
    (stroke (width 0) (type default) (color 0 0 0 0))
    (uuid e0141253-7ed4-4e3b-8264-276e9d25fe50)
  )
  (wire (pts (xy 144.78 87.63) (xy 147.32 87.63))
    (stroke (width 0) (type default) (color 0 0 0 0))
    (uuid e268972e-004d-414c-aeae-2617d39e596e)
  )
  (wire (pts (xy 181.61 93.98) (xy 193.04 93.98))
    (stroke (width 0) (type default) (color 0 0 0 0))
    (uuid e29fab5b-ed11-4289-81bf-3816356f5a6d)
  )
  (wire (pts (xy 171.45 104.14) (xy 181.61 104.14))
    (stroke (width 0) (type default) (color 0 0 0 0))
    (uuid e4cc6888-2778-406b-ba90-1733b8677fd8)
  )
  (wire (pts (xy 193.04 82.55) (xy 193.04 80.01))
    (stroke (width 0) (type default) (color 0 0 0 0))
    (uuid effe87fc-606e-491c-8b74-f86d943077d7)
  )
  (wire (pts (xy 151.13 104.14) (xy 161.29 104.14))
    (stroke (width 0) (type default) (color 0 0 0 0))
    (uuid f8bbf601-d795-488e-a146-e1cd21afacd7)
  )
  (wire (pts (xy 116.84 72.39) (xy 116.84 71.12))
    (stroke (width 0) (type default) (color 0 0 0 0))
    (uuid f9f36fa7-2c08-402a-9ff9-107cfda7a6c1)
  )
  (wire (pts (xy 144.78 99.06) (xy 147.32 99.06))
    (stroke (width 0) (type default) (color 0 0 0 0))
    (uuid fe8e8d6a-be13-40b4-bb3e-abf8e1ed80f0)
  )

  (global_label "STRIP" (shape input) (at 104.14 87.63 180) (fields_autoplaced)
    (effects (font (size 1.27 1.27)) (justify right))
    (uuid 02c0a9c4-c02a-44c9-ac3a-901186e8b390)
    (property "Intersheet References" "${INTERSHEET_REFS}" (id 0) (at 96.405 87.7094 0)
      (effects (font (size 1.27 1.27)) (justify right) hide)
    )
  )
  (global_label "STRIP" (shape input) (at 116.84 62.23 180) (fields_autoplaced)
    (effects (font (size 1.27 1.27)) (justify right))
    (uuid ec26cb2e-0fde-46c6-964c-6971b2c51132)
    (property "Intersheet References" "${INTERSHEET_REFS}" (id 0) (at 109.105 62.3094 0)
      (effects (font (size 1.27 1.27)) (justify right) hide)
    )
  )

  (symbol (lib_id "Device:LED_Pad") (at 120.65 99.06 180) (unit 1)
    (in_bom yes) (on_board yes) (fields_autoplaced)
    (uuid 0a28061f-5d95-41df-b1f9-d67b36570c24)
    (property "Reference" "D10" (id 0) (at 122.2375 93.2012 0))
    (property "Value" "LED" (id 1) (at 122.2375 95.7381 0))
    (property "Footprint" "LH351B:LH351B" (id 2) (at 120.65 99.06 0)
      (effects (font (size 1.27 1.27)) hide)
    )
    (property "Datasheet" "~" (id 3) (at 120.65 99.06 0)
      (effects (font (size 1.27 1.27)) hide)
    )
    (pin "1" (uuid 0a018e96-1757-47dc-abfb-7e8befbd165c))
    (pin "2" (uuid b2c41ad6-ef01-4d2d-a338-4c7cd7cc82f2))
    (pin "3" (uuid 4aeead62-2f45-49e1-898d-e8665c7386cc))
  )

  (symbol (lib_id "Device:LED_Pad") (at 151.13 99.06 180) (unit 1)
    (in_bom yes) (on_board yes) (fields_autoplaced)
    (uuid 0dd78abd-aaf6-4c58-8e0e-4e9bb8638e80)
    (property "Reference" "D13" (id 0) (at 152.7175 93.2012 0))
    (property "Value" "LED" (id 1) (at 152.7175 95.7381 0))
    (property "Footprint" "LH351B:LH351B" (id 2) (at 151.13 99.06 0)
      (effects (font (size 1.27 1.27)) hide)
    )
    (property "Datasheet" "~" (id 3) (at 151.13 99.06 0)
      (effects (font (size 1.27 1.27)) hide)
    )
    (pin "1" (uuid 6315d210-0849-4388-9b3f-5e613f577362))
    (pin "2" (uuid acf3f795-acba-4927-9043-69d0bcdd6784))
    (pin "3" (uuid 2ca1b237-2214-43b9-9c28-1a8f2c17cb7b))
  )

  (symbol (lib_id "Connector_Generic:Conn_01x01") (at 124.46 71.12 0) (unit 1)
    (in_bom yes) (on_board yes) (fields_autoplaced)
    (uuid 1f2bacd4-4c2f-4b7f-9aa9-7123d1d8265c)
    (property "Reference" "J2" (id 0) (at 126.492 70.2853 0)
      (effects (font (size 1.27 1.27)) (justify left))
    )
    (property "Value" "Conn_01x01" (id 1) (at 126.492 72.8222 0)
      (effects (font (size 1.27 1.27)) (justify left))
    )
    (property "Footprint" "digikey-footprints:WIRE_PAD" (id 2) (at 124.46 71.12 0)
      (effects (font (size 1.27 1.27)) hide)
    )
    (property "Datasheet" "~" (id 3) (at 124.46 71.12 0)
      (effects (font (size 1.27 1.27)) hide)
    )
    (pin "1" (uuid ce6f4cfd-5986-48a4-9316-7e268c4af9cd))
  )

  (symbol (lib_id "power:GND") (at 116.84 72.39 0) (unit 1)
    (in_bom yes) (on_board yes) (fields_autoplaced)
    (uuid 21628da2-7acc-42e3-bc54-f846e86e84b9)
    (property "Reference" "#PWR02" (id 0) (at 116.84 78.74 0)
      (effects (font (size 1.27 1.27)) hide)
    )
    (property "Value" "GND" (id 1) (at 116.84 76.8334 0))
    (property "Footprint" "" (id 2) (at 116.84 72.39 0)
      (effects (font (size 1.27 1.27)) hide)
    )
    (property "Datasheet" "" (id 3) (at 116.84 72.39 0)
      (effects (font (size 1.27 1.27)) hide)
    )
    (pin "1" (uuid 008f5979-97d8-4f74-87f2-29edad281e7e))
  )

  (symbol (lib_id "Device:LED_Pad") (at 181.61 87.63 180) (unit 1)
    (in_bom yes) (on_board yes) (fields_autoplaced)
    (uuid 255ead8e-890a-4d67-a504-16fe30f157dd)
    (property "Reference" "D8" (id 0) (at 183.1975 81.7712 0))
    (property "Value" "LED" (id 1) (at 183.1975 84.3081 0))
    (property "Footprint" "LH351B:LH351B" (id 2) (at 181.61 87.63 0)
      (effects (font (size 1.27 1.27)) hide)
    )
    (property "Datasheet" "~" (id 3) (at 181.61 87.63 0)
      (effects (font (size 1.27 1.27)) hide)
    )
    (pin "1" (uuid 975cc5bb-9b3a-407b-8528-e51d403a0e92))
    (pin "2" (uuid 6addd6bb-8f25-44c2-a450-1ee7385695fd))
    (pin "3" (uuid 8690893e-2c08-45f7-a234-aca673509c4a))
  )

  (symbol (lib_id "power:VSS") (at 193.04 80.01 0) (unit 1)
    (in_bom yes) (on_board yes) (fields_autoplaced)
    (uuid 32d1b51c-2209-47d4-a0d7-757d29de2998)
    (property "Reference" "#PWR0103" (id 0) (at 193.04 83.82 0)
      (effects (font (size 1.27 1.27)) hide)
    )
    (property "Value" "VSS" (id 1) (at 193.04 76.4342 0))
    (property "Footprint" "" (id 2) (at 193.04 80.01 0)
      (effects (font (size 1.27 1.27)) hide)
    )
    (property "Datasheet" "" (id 3) (at 193.04 80.01 0)
      (effects (font (size 1.27 1.27)) hide)
    )
    (pin "1" (uuid 6910201c-86ab-49df-85a8-cf7ca2756086))
  )

  (symbol (lib_id "Device:LED_Pad") (at 171.45 99.06 180) (unit 1)
    (in_bom yes) (on_board yes) (fields_autoplaced)
    (uuid 43b4a518-db49-4b39-8187-8c4e841e3712)
    (property "Reference" "D15" (id 0) (at 173.0375 93.2012 0))
    (property "Value" "LED" (id 1) (at 173.0375 95.7381 0))
    (property "Footprint" "LH351B:LH351B" (id 2) (at 171.45 99.06 0)
      (effects (font (size 1.27 1.27)) hide)
    )
    (property "Datasheet" "~" (id 3) (at 171.45 99.06 0)
      (effects (font (size 1.27 1.27)) hide)
    )
    (pin "1" (uuid 57a36a19-afde-477b-ac78-9fa6373341cc))
    (pin "2" (uuid cf03ea0c-00f6-40aa-be0a-00e0850ed332))
    (pin "3" (uuid e8698590-9d31-4a58-865c-c9c37189d28e))
  )

  (symbol (lib_id "Device:LED_Pad") (at 120.65 109.22 180) (unit 1)
    (in_bom yes) (on_board yes) (fields_autoplaced)
    (uuid 45db713a-69b9-47e6-84dc-ad8da6a825f9)
    (property "Reference" "D18" (id 0) (at 122.2375 103.3612 0))
    (property "Value" "LED" (id 1) (at 122.2375 105.8981 0))
    (property "Footprint" "LH351B:LH351B" (id 2) (at 120.65 109.22 0)
      (effects (font (size 1.27 1.27)) hide)
    )
    (property "Datasheet" "~" (id 3) (at 120.65 109.22 0)
      (effects (font (size 1.27 1.27)) hide)
    )
    (pin "1" (uuid 68bfa92b-ee48-4df9-adcb-fb3ee4db69ca))
    (pin "2" (uuid d6c8f2dc-b49f-48b6-b6e7-0294aaa20d4c))
    (pin "3" (uuid 375d3653-444a-4847-a10f-5590a12aa6b9))
  )

  (symbol (lib_id "Device:LED_Pad") (at 140.97 87.63 180) (unit 1)
    (in_bom yes) (on_board yes) (fields_autoplaced)
    (uuid 5a80cadd-184e-4cb8-a0aa-0955eb308ca0)
    (property "Reference" "D4" (id 0) (at 142.5575 81.7712 0))
    (property "Value" "LED" (id 1) (at 142.5575 84.3081 0))
    (property "Footprint" "LH351B:LH351B" (id 2) (at 140.97 87.63 0)
      (effects (font (size 1.27 1.27)) hide)
    )
    (property "Datasheet" "~" (id 3) (at 140.97 87.63 0)
      (effects (font (size 1.27 1.27)) hide)
    )
    (pin "1" (uuid 63872a59-32d8-47c3-96d7-a11c48c79230))
    (pin "2" (uuid 196b2545-e593-4437-9ecd-ff62224963dd))
    (pin "3" (uuid 217efc0f-276b-453a-b243-b1f3c5776aef))
  )

  (symbol (lib_id "Device:LED_Pad") (at 171.45 87.63 180) (unit 1)
    (in_bom yes) (on_board yes) (fields_autoplaced)
    (uuid 66ee3b20-6a5a-435e-a091-6b9f26ed109e)
    (property "Reference" "D7" (id 0) (at 173.0375 81.7712 0))
    (property "Value" "LED" (id 1) (at 173.0375 84.3081 0))
    (property "Footprint" "LH351B:LH351B" (id 2) (at 171.45 87.63 0)
      (effects (font (size 1.27 1.27)) hide)
    )
    (property "Datasheet" "~" (id 3) (at 171.45 87.63 0)
      (effects (font (size 1.27 1.27)) hide)
    )
    (pin "1" (uuid 5654182a-c3bc-4c3d-bae2-7ffecfb4de4f))
    (pin "2" (uuid 8407dadc-b79a-4325-838d-c4c2f78bd1ea))
    (pin "3" (uuid d4a9637b-a121-4001-9476-70aee79eb1c0))
  )

  (symbol (lib_id "Device:LED_Pad") (at 161.29 109.22 180) (unit 1)
    (in_bom yes) (on_board yes) (fields_autoplaced)
    (uuid 67011f05-4911-4cfb-b86e-e9c0b1075860)
    (property "Reference" "D22" (id 0) (at 162.8775 103.3612 0))
    (property "Value" "LED" (id 1) (at 162.8775 105.8981 0))
    (property "Footprint" "LH351B:LH351B" (id 2) (at 161.29 109.22 0)
      (effects (font (size 1.27 1.27)) hide)
    )
    (property "Datasheet" "~" (id 3) (at 161.29 109.22 0)
      (effects (font (size 1.27 1.27)) hide)
    )
    (pin "1" (uuid 974bb8d1-b645-4bb4-8485-d029a6b51a44))
    (pin "2" (uuid 5e59fbf8-d7b5-45a8-a400-c4e1f7b24b1c))
    (pin "3" (uuid 4670a683-e446-4faa-82a9-7dae25afe123))
  )

  (symbol (lib_id "Device:LED_Pad") (at 140.97 109.22 180) (unit 1)
    (in_bom yes) (on_board yes) (fields_autoplaced)
    (uuid 6db83f10-136d-4c66-b288-7d096df5fedc)
    (property "Reference" "D20" (id 0) (at 142.5575 103.3612 0))
    (property "Value" "LED" (id 1) (at 142.5575 105.8981 0))
    (property "Footprint" "LH351B:LH351B" (id 2) (at 140.97 109.22 0)
      (effects (font (size 1.27 1.27)) hide)
    )
    (property "Datasheet" "~" (id 3) (at 140.97 109.22 0)
      (effects (font (size 1.27 1.27)) hide)
    )
    (pin "1" (uuid 05427f44-5a36-4a58-b7f3-4f22ea707fc7))
    (pin "2" (uuid afb93e5e-4714-4275-b098-6d6c976a4413))
    (pin "3" (uuid 82b308bd-e92a-413e-b421-0fbd20dbbf06))
  )

  (symbol (lib_id "Device:LED_Pad") (at 140.97 99.06 180) (unit 1)
    (in_bom yes) (on_board yes) (fields_autoplaced)
    (uuid 700e9248-bac7-4f90-b8e1-c9cf1a93a1a1)
    (property "Reference" "D12" (id 0) (at 142.5575 93.2012 0))
    (property "Value" "LED" (id 1) (at 142.5575 95.7381 0))
    (property "Footprint" "LH351B:LH351B" (id 2) (at 140.97 99.06 0)
      (effects (font (size 1.27 1.27)) hide)
    )
    (property "Datasheet" "~" (id 3) (at 140.97 99.06 0)
      (effects (font (size 1.27 1.27)) hide)
    )
    (pin "1" (uuid 600da566-e2ff-441c-95fb-06d047550c62))
    (pin "2" (uuid 327c2820-b0eb-46bd-bd53-4fd7aa3b6ca4))
    (pin "3" (uuid 0e0e3bf6-9dbd-425b-a0aa-e671b36ff6de))
  )

  (symbol (lib_id "power:VSS") (at 193.04 101.6 0) (unit 1)
    (in_bom yes) (on_board yes) (fields_autoplaced)
    (uuid 718b0559-e763-43e2-8f26-849a0299ca3a)
    (property "Reference" "#PWR0101" (id 0) (at 193.04 105.41 0)
      (effects (font (size 1.27 1.27)) hide)
    )
    (property "Value" "VSS" (id 1) (at 193.04 98.0242 0))
    (property "Footprint" "" (id 2) (at 193.04 101.6 0)
      (effects (font (size 1.27 1.27)) hide)
    )
    (property "Datasheet" "" (id 3) (at 193.04 101.6 0)
      (effects (font (size 1.27 1.27)) hide)
    )
    (pin "1" (uuid 8be3ea65-c40f-4ac2-80d9-010abd4b2aa4))
  )

  (symbol (lib_id "Device:LED_Pad") (at 181.61 109.22 180) (unit 1)
    (in_bom yes) (on_board yes) (fields_autoplaced)
    (uuid 719b5774-e367-4828-a1f0-07b31d54cd4a)
    (property "Reference" "D24" (id 0) (at 183.1975 103.3612 0))
    (property "Value" "LED" (id 1) (at 183.1975 105.8981 0))
    (property "Footprint" "LH351B:LH351B" (id 2) (at 181.61 109.22 0)
      (effects (font (size 1.27 1.27)) hide)
    )
    (property "Datasheet" "~" (id 3) (at 181.61 109.22 0)
      (effects (font (size 1.27 1.27)) hide)
    )
    (pin "1" (uuid bffebcff-f439-40c2-b274-03e2d458bd64))
    (pin "2" (uuid 06a2d8d2-d077-4836-a3f7-064c0e4b12d1))
    (pin "3" (uuid fc639a94-edc5-4fe8-934c-3faf5c48ae3b))
  )

  (symbol (lib_id "Device:LED_Pad") (at 110.49 109.22 180) (unit 1)
    (in_bom yes) (on_board yes) (fields_autoplaced)
    (uuid 7e47e25e-bc3f-4197-bab4-dd127dde4fcf)
    (property "Reference" "D17" (id 0) (at 112.0775 103.3612 0))
    (property "Value" "LED" (id 1) (at 112.0775 105.8981 0))
    (property "Footprint" "LH351B:LH351B" (id 2) (at 110.49 109.22 0)
      (effects (font (size 1.27 1.27)) hide)
    )
    (property "Datasheet" "~" (id 3) (at 110.49 109.22 0)
      (effects (font (size 1.27 1.27)) hide)
    )
    (pin "1" (uuid 9f824b3b-7a19-46fd-b71c-8edf5af6be64))
    (pin "2" (uuid 25fa682d-f833-4185-9c04-91e7446a7f15))
    (pin "3" (uuid b6cf1b59-f8b6-4eef-b8a8-5eb1bb956eee))
  )

  (symbol (lib_id "Device:LED_Pad") (at 161.29 99.06 180) (unit 1)
    (in_bom yes) (on_board yes) (fields_autoplaced)
    (uuid 7e59e1ff-f883-410c-9fe6-59d5423f206a)
    (property "Reference" "D14" (id 0) (at 162.8775 93.2012 0))
    (property "Value" "LED" (id 1) (at 162.8775 95.7381 0))
    (property "Footprint" "LH351B:LH351B" (id 2) (at 161.29 99.06 0)
      (effects (font (size 1.27 1.27)) hide)
    )
    (property "Datasheet" "~" (id 3) (at 161.29 99.06 0)
      (effects (font (size 1.27 1.27)) hide)
    )
    (pin "1" (uuid 34aca230-5698-4731-bfa3-23899920d02f))
    (pin "2" (uuid 76f4007e-bf0a-4f1d-a9ef-b25d3f557cba))
    (pin "3" (uuid 0cc3686e-20d0-4bfc-a709-ac93daf3e1d4))
  )

  (symbol (lib_id "Device:LED_Pad") (at 151.13 87.63 180) (unit 1)
    (in_bom yes) (on_board yes) (fields_autoplaced)
    (uuid 80ddc3e3-544c-457b-a3c1-12404aab4ee9)
    (property "Reference" "D5" (id 0) (at 152.7175 81.7712 0))
    (property "Value" "LED" (id 1) (at 152.7175 84.3081 0))
    (property "Footprint" "LH351B:LH351B" (id 2) (at 151.13 87.63 0)
      (effects (font (size 1.27 1.27)) hide)
    )
    (property "Datasheet" "~" (id 3) (at 151.13 87.63 0)
      (effects (font (size 1.27 1.27)) hide)
    )
    (pin "1" (uuid b81a34b0-6b9f-40ac-b4a4-4159ebe195f5))
    (pin "2" (uuid 7744e4b2-8756-4c61-aaa1-0c32016537fb))
    (pin "3" (uuid 9c380005-2989-498f-a006-afd92ea9f387))
  )

  (symbol (lib_id "Device:LED_Pad") (at 171.45 109.22 180) (unit 1)
    (in_bom yes) (on_board yes) (fields_autoplaced)
    (uuid 9daff696-55ee-43e8-b915-6da25776a223)
    (property "Reference" "D23" (id 0) (at 173.0375 103.3612 0))
    (property "Value" "LED" (id 1) (at 173.0375 105.8981 0))
    (property "Footprint" "LH351B:LH351B" (id 2) (at 171.45 109.22 0)
      (effects (font (size 1.27 1.27)) hide)
    )
    (property "Datasheet" "~" (id 3) (at 171.45 109.22 0)
      (effects (font (size 1.27 1.27)) hide)
    )
    (pin "1" (uuid dbb2a724-9b74-4179-b3ad-57ac4f275668))
    (pin "2" (uuid b97c98bb-95de-43f9-9ac2-a0f77807934f))
    (pin "3" (uuid e8decb30-f2dd-4f14-95ce-6895db415d3f))
  )

  (symbol (lib_id "Device:LED_Pad") (at 161.29 87.63 180) (unit 1)
    (in_bom yes) (on_board yes) (fields_autoplaced)
    (uuid 9f21e9cb-b34c-4174-b989-41b16e53b7f6)
    (property "Reference" "D6" (id 0) (at 162.8775 81.7712 0))
    (property "Value" "LED" (id 1) (at 162.8775 84.3081 0))
    (property "Footprint" "LH351B:LH351B" (id 2) (at 161.29 87.63 0)
      (effects (font (size 1.27 1.27)) hide)
    )
    (property "Datasheet" "~" (id 3) (at 161.29 87.63 0)
      (effects (font (size 1.27 1.27)) hide)
    )
    (pin "1" (uuid 1d5b1323-948d-4928-a6ab-29c2e96cf087))
    (pin "2" (uuid 3fd425bc-f3d7-47b3-ba9c-c0db2a7efe65))
    (pin "3" (uuid fcf15e7f-21b8-4dfb-a276-15f64ff7f8ed))
  )

  (symbol (lib_id "Connector_Generic:Conn_01x01") (at 124.46 62.23 0) (unit 1)
    (in_bom yes) (on_board yes) (fields_autoplaced)
    (uuid 9fe1c1ce-4730-40be-a47d-9f3b078fcaf4)
    (property "Reference" "J1" (id 0) (at 126.492 61.3953 0)
      (effects (font (size 1.27 1.27)) (justify left))
    )
    (property "Value" "Conn_01x01" (id 1) (at 126.492 63.9322 0)
      (effects (font (size 1.27 1.27)) (justify left))
    )
    (property "Footprint" "digikey-footprints:WIRE_PAD" (id 2) (at 124.46 62.23 0)
      (effects (font (size 1.27 1.27)) hide)
    )
    (property "Datasheet" "~" (id 3) (at 124.46 62.23 0)
      (effects (font (size 1.27 1.27)) hide)
    )
    (pin "1" (uuid a01952bc-4380-4327-934a-25c092014c0f))
  )

  (symbol (lib_id "Device:LED_Pad") (at 181.61 99.06 180) (unit 1)
    (in_bom yes) (on_board yes) (fields_autoplaced)
    (uuid a8f2a7f8-4ab1-4c09-ac16-baa325caff00)
    (property "Reference" "D16" (id 0) (at 183.1975 93.2012 0))
    (property "Value" "LED" (id 1) (at 183.1975 95.7381 0))
    (property "Footprint" "LH351B:LH351B" (id 2) (at 181.61 99.06 0)
      (effects (font (size 1.27 1.27)) hide)
    )
    (property "Datasheet" "~" (id 3) (at 181.61 99.06 0)
      (effects (font (size 1.27 1.27)) hide)
    )
    (pin "1" (uuid d46ee0ab-01bb-48c9-bbda-c7e6697fb196))
    (pin "2" (uuid ae8fe72d-74d4-4459-9ca3-ba120f1d6a80))
    (pin "3" (uuid 5457192f-dd9e-470f-86e2-f0680271b3b5))
  )

  (symbol (lib_id "Device:LED_Pad") (at 120.65 87.63 180) (unit 1)
    (in_bom yes) (on_board yes) (fields_autoplaced)
    (uuid ae142140-8686-4223-a020-c570ca82c1c2)
    (property "Reference" "D2" (id 0) (at 122.2375 81.7712 0))
    (property "Value" "LED" (id 1) (at 122.2375 84.3081 0))
    (property "Footprint" "LH351B:LH351B" (id 2) (at 120.65 87.63 0)
      (effects (font (size 1.27 1.27)) hide)
    )
    (property "Datasheet" "~" (id 3) (at 120.65 87.63 0)
      (effects (font (size 1.27 1.27)) hide)
    )
    (pin "1" (uuid 72075537-07ea-43e9-a986-be785a85caac))
    (pin "2" (uuid 6610a184-1d5c-473e-92aa-eafc958ca564))
    (pin "3" (uuid 8de4f174-4196-458f-ac00-6efa71c1e8cb))
  )

  (symbol (lib_id "Device:LED_Pad") (at 130.81 87.63 180) (unit 1)
    (in_bom yes) (on_board yes) (fields_autoplaced)
    (uuid b377dc07-4dd9-4229-996e-814cbd8b2247)
    (property "Reference" "D3" (id 0) (at 132.3975 81.7712 0))
    (property "Value" "LED" (id 1) (at 132.3975 84.3081 0))
    (property "Footprint" "LH351B:LH351B" (id 2) (at 130.81 87.63 0)
      (effects (font (size 1.27 1.27)) hide)
    )
    (property "Datasheet" "~" (id 3) (at 130.81 87.63 0)
      (effects (font (size 1.27 1.27)) hide)
    )
    (pin "1" (uuid 20bf7cca-f934-4176-8e3f-abd9948ff570))
    (pin "2" (uuid e9739085-fb60-4c05-b8ee-afe6de13e9b5))
    (pin "3" (uuid 1a5f4380-132e-43f2-a7d2-a5b14a1af4df))
  )

  (symbol (lib_id "power:VSS") (at 193.04 92.71 0) (unit 1)
    (in_bom yes) (on_board yes) (fields_autoplaced)
    (uuid bfcd7707-9e70-4bab-b273-d6a5146d02d7)
    (property "Reference" "#PWR0102" (id 0) (at 193.04 96.52 0)
      (effects (font (size 1.27 1.27)) hide)
    )
    (property "Value" "VSS" (id 1) (at 193.04 89.1342 0))
    (property "Footprint" "" (id 2) (at 193.04 92.71 0)
      (effects (font (size 1.27 1.27)) hide)
    )
    (property "Datasheet" "" (id 3) (at 193.04 92.71 0)
      (effects (font (size 1.27 1.27)) hide)
    )
    (pin "1" (uuid 8d92db07-a1a0-41d9-84f5-9da49b64ee63))
  )

  (symbol (lib_id "Device:LED_Pad") (at 110.49 99.06 180) (unit 1)
    (in_bom yes) (on_board yes) (fields_autoplaced)
    (uuid c7ddc58e-5f00-4b2e-af08-49d8584a21e2)
    (property "Reference" "D9" (id 0) (at 112.0775 93.2012 0))
    (property "Value" "LED" (id 1) (at 112.0775 95.7381 0))
    (property "Footprint" "LH351B:LH351B" (id 2) (at 110.49 99.06 0)
      (effects (font (size 1.27 1.27)) hide)
    )
    (property "Datasheet" "~" (id 3) (at 110.49 99.06 0)
      (effects (font (size 1.27 1.27)) hide)
    )
    (pin "1" (uuid f4b1829b-bb37-4115-8ed8-e1868177a9a9))
    (pin "2" (uuid c256de89-4716-4a85-9593-697aada29adc))
    (pin "3" (uuid 507a2d28-81ec-4562-99bc-5b51f52746f6))
  )

  (symbol (lib_id "Device:LED_Pad") (at 110.49 87.63 180) (unit 1)
    (in_bom yes) (on_board yes) (fields_autoplaced)
    (uuid c8821069-c73a-4de3-b971-8c651f5ea645)
    (property "Reference" "D1" (id 0) (at 112.0775 81.7712 0))
    (property "Value" "LED" (id 1) (at 112.0775 84.3081 0))
    (property "Footprint" "LH351B:LH351B" (id 2) (at 110.49 87.63 0)
      (effects (font (size 1.27 1.27)) hide)
    )
    (property "Datasheet" "~" (id 3) (at 110.49 87.63 0)
      (effects (font (size 1.27 1.27)) hide)
    )
    (pin "1" (uuid 465e3d5a-45c7-4ab9-876d-61c52f2d40c6))
    (pin "2" (uuid aaa682a2-aeaf-4978-b389-a2627d66a8b6))
    (pin "3" (uuid c42a175b-5980-46ee-9f01-54b3a61c23fa))
  )

  (symbol (lib_id "power:GND") (at 187.96 110.49 0) (unit 1)
    (in_bom yes) (on_board yes) (fields_autoplaced)
    (uuid cb785154-3844-407c-aa5d-3e23cdb43fdb)
    (property "Reference" "#PWR04" (id 0) (at 187.96 116.84 0)
      (effects (font (size 1.27 1.27)) hide)
    )
    (property "Value" "GND" (id 1) (at 187.96 114.9334 0))
    (property "Footprint" "" (id 2) (at 187.96 110.49 0)
      (effects (font (size 1.27 1.27)) hide)
    )
    (property "Datasheet" "" (id 3) (at 187.96 110.49 0)
      (effects (font (size 1.27 1.27)) hide)
    )
    (pin "1" (uuid 79d5f16e-2b44-4dd3-9892-cd2552c797dc))
  )

  (symbol (lib_id "Device:LED_Pad") (at 130.81 109.22 180) (unit 1)
    (in_bom yes) (on_board yes) (fields_autoplaced)
    (uuid cc360b0a-f7d9-4ba5-84fd-7018ff3b25b1)
    (property "Reference" "D19" (id 0) (at 132.3975 103.3612 0))
    (property "Value" "LED" (id 1) (at 132.3975 105.8981 0))
    (property "Footprint" "LH351B:LH351B" (id 2) (at 130.81 109.22 0)
      (effects (font (size 1.27 1.27)) hide)
    )
    (property "Datasheet" "~" (id 3) (at 130.81 109.22 0)
      (effects (font (size 1.27 1.27)) hide)
    )
    (pin "1" (uuid 1422f008-d9ee-4623-b8bd-c6135d19b541))
    (pin "2" (uuid 5800270f-6719-4132-9221-2112928735d5))
    (pin "3" (uuid a50a06ab-e9d6-4c3d-9985-6285d3e0fa1b))
  )

  (symbol (lib_id "Device:LED_Pad") (at 130.81 99.06 180) (unit 1)
    (in_bom yes) (on_board yes) (fields_autoplaced)
    (uuid d32c3afa-b528-4029-906d-2311f6592476)
    (property "Reference" "D11" (id 0) (at 132.3975 93.2012 0))
    (property "Value" "LED" (id 1) (at 132.3975 95.7381 0))
    (property "Footprint" "LH351B:LH351B" (id 2) (at 130.81 99.06 0)
      (effects (font (size 1.27 1.27)) hide)
    )
    (property "Datasheet" "~" (id 3) (at 130.81 99.06 0)
      (effects (font (size 1.27 1.27)) hide)
    )
    (pin "1" (uuid 33e6b321-98bf-4d73-9afa-0bb7247e43ba))
    (pin "2" (uuid 163a6a04-4537-41f5-96f6-14e644757055))
    (pin "3" (uuid 82a688b1-da30-4c2a-b3bd-acd3234a329b))
  )

  (symbol (lib_id "Device:LED_Pad") (at 151.13 109.22 180) (unit 1)
    (in_bom yes) (on_board yes) (fields_autoplaced)
    (uuid fa45e300-e5e6-445d-9999-7b7d4fb0b58a)
    (property "Reference" "D21" (id 0) (at 152.7175 103.3612 0))
    (property "Value" "LED" (id 1) (at 152.7175 105.8981 0))
    (property "Footprint" "LH351B:LH351B" (id 2) (at 151.13 109.22 0)
      (effects (font (size 1.27 1.27)) hide)
    )
    (property "Datasheet" "~" (id 3) (at 151.13 109.22 0)
      (effects (font (size 1.27 1.27)) hide)
    )
    (pin "1" (uuid 7b4db299-840e-4471-88d8-72338d5ff8c8))
    (pin "2" (uuid 47965c02-3efb-4a3f-ae6e-4b54128f2b2c))
    (pin "3" (uuid 064e6138-2811-405a-af76-60b4b4250139))
  )

  (sheet_instances
    (path "/" (page "1"))
  )

  (symbol_instances
    (path "/21628da2-7acc-42e3-bc54-f846e86e84b9"
      (reference "#PWR02") (unit 1) (value "GND") (footprint "")
    )
    (path "/cb785154-3844-407c-aa5d-3e23cdb43fdb"
      (reference "#PWR04") (unit 1) (value "GND") (footprint "")
    )
    (path "/718b0559-e763-43e2-8f26-849a0299ca3a"
      (reference "#PWR0101") (unit 1) (value "VSS") (footprint "")
    )
    (path "/bfcd7707-9e70-4bab-b273-d6a5146d02d7"
      (reference "#PWR0102") (unit 1) (value "VSS") (footprint "")
    )
    (path "/32d1b51c-2209-47d4-a0d7-757d29de2998"
      (reference "#PWR0103") (unit 1) (value "VSS") (footprint "")
    )
    (path "/c8821069-c73a-4de3-b971-8c651f5ea645"
      (reference "D1") (unit 1) (value "LED") (footprint "LH351B:LH351B")
    )
    (path "/ae142140-8686-4223-a020-c570ca82c1c2"
      (reference "D2") (unit 1) (value "LED") (footprint "LH351B:LH351B")
    )
    (path "/b377dc07-4dd9-4229-996e-814cbd8b2247"
      (reference "D3") (unit 1) (value "LED") (footprint "LH351B:LH351B")
    )
    (path "/5a80cadd-184e-4cb8-a0aa-0955eb308ca0"
      (reference "D4") (unit 1) (value "LED") (footprint "LH351B:LH351B")
    )
    (path "/80ddc3e3-544c-457b-a3c1-12404aab4ee9"
      (reference "D5") (unit 1) (value "LED") (footprint "LH351B:LH351B")
    )
    (path "/9f21e9cb-b34c-4174-b989-41b16e53b7f6"
      (reference "D6") (unit 1) (value "LED") (footprint "LH351B:LH351B")
    )
    (path "/66ee3b20-6a5a-435e-a091-6b9f26ed109e"
      (reference "D7") (unit 1) (value "LED") (footprint "LH351B:LH351B")
    )
    (path "/255ead8e-890a-4d67-a504-16fe30f157dd"
      (reference "D8") (unit 1) (value "LED") (footprint "LH351B:LH351B")
    )
    (path "/c7ddc58e-5f00-4b2e-af08-49d8584a21e2"
      (reference "D9") (unit 1) (value "LED") (footprint "LH351B:LH351B")
    )
    (path "/0a28061f-5d95-41df-b1f9-d67b36570c24"
      (reference "D10") (unit 1) (value "LED") (footprint "LH351B:LH351B")
    )
    (path "/d32c3afa-b528-4029-906d-2311f6592476"
      (reference "D11") (unit 1) (value "LED") (footprint "LH351B:LH351B")
    )
    (path "/700e9248-bac7-4f90-b8e1-c9cf1a93a1a1"
      (reference "D12") (unit 1) (value "LED") (footprint "LH351B:LH351B")
    )
    (path "/0dd78abd-aaf6-4c58-8e0e-4e9bb8638e80"
      (reference "D13") (unit 1) (value "LED") (footprint "LH351B:LH351B")
    )
    (path "/7e59e1ff-f883-410c-9fe6-59d5423f206a"
      (reference "D14") (unit 1) (value "LED") (footprint "LH351B:LH351B")
    )
    (path "/43b4a518-db49-4b39-8187-8c4e841e3712"
      (reference "D15") (unit 1) (value "LED") (footprint "LH351B:LH351B")
    )
    (path "/a8f2a7f8-4ab1-4c09-ac16-baa325caff00"
      (reference "D16") (unit 1) (value "LED") (footprint "LH351B:LH351B")
    )
    (path "/7e47e25e-bc3f-4197-bab4-dd127dde4fcf"
      (reference "D17") (unit 1) (value "LED") (footprint "LH351B:LH351B")
    )
    (path "/45db713a-69b9-47e6-84dc-ad8da6a825f9"
      (reference "D18") (unit 1) (value "LED") (footprint "LH351B:LH351B")
    )
    (path "/cc360b0a-f7d9-4ba5-84fd-7018ff3b25b1"
      (reference "D19") (unit 1) (value "LED") (footprint "LH351B:LH351B")
    )
    (path "/6db83f10-136d-4c66-b288-7d096df5fedc"
      (reference "D20") (unit 1) (value "LED") (footprint "LH351B:LH351B")
    )
    (path "/fa45e300-e5e6-445d-9999-7b7d4fb0b58a"
      (reference "D21") (unit 1) (value "LED") (footprint "LH351B:LH351B")
    )
    (path "/67011f05-4911-4cfb-b86e-e9c0b1075860"
      (reference "D22") (unit 1) (value "LED") (footprint "LH351B:LH351B")
    )
    (path "/9daff696-55ee-43e8-b915-6da25776a223"
      (reference "D23") (unit 1) (value "LED") (footprint "LH351B:LH351B")
    )
    (path "/719b5774-e367-4828-a1f0-07b31d54cd4a"
      (reference "D24") (unit 1) (value "LED") (footprint "LH351B:LH351B")
    )
    (path "/9fe1c1ce-4730-40be-a47d-9f3b078fcaf4"
      (reference "J1") (unit 1) (value "Conn_01x01") (footprint "digikey-footprints:WIRE_PAD")
    )
    (path "/1f2bacd4-4c2f-4b7f-9aa9-7123d1d8265c"
      (reference "J2") (unit 1) (value "Conn_01x01") (footprint "digikey-footprints:WIRE_PAD")
    )
  )
)
