M48
; DRILL file {KiCad (6.0.7)} date Sun 23 Oct 2022 11:35:56 PM EDT
; FORMAT={-:-/ absolute / inch / decimal}
; #@! TF.CreationDate,2022-10-23T23:35:56-04:00
; #@! TF.GenerationSoftware,Kicad,Pcbnew,(6.0.7)
; #@! TF.FileFunction,Plated,1,2,PTH
FMAT,2
INCH
%
G90
G05
T0
M30
