(module SOIC-8_MPQ24833-BGN-AEC1_MNP (layer F.Cu)
  (fp_text reference REF** (at 0 0) (layer F.SilkS)
    (effects (font (size 1 1) (thickness .15)))
  )
  (fp_text value SOIC-8_MPQ24833-BGN-AEC1_MNP (at 0 0) (layer F.SilkS)
    (effects (font (size 1 1) (thickness .15)))
  )
  (fp_text user "Copyright 2021 Accelerated Designs. All rights reserved." (at 0 0) (layer Cmts.User)
    (effects (font (size .127 .127) (thickness .002)))
  )
  (fp_text user "*" (at -2.97815 -3.6068) (layer F.SilkS)
    (effects (font (size 1 1) (thickness .15)))
  )
  (fp_text user "*" (at -1.6129 -2.4257) (layer F.Fab)
    (effects (font (size 1 1) (thickness .15)))
  )
  (fp_text user "0.05in/1.27mm" (at -5.77215 -1.27) (layer Cmts.User)
    (effects (font (size 1 1) (thickness .15)))
  )
  (fp_text user "0.022in/0.559mm" (at 5.77215 -1.905) (layer Cmts.User)
    (effects (font (size 1 1) (thickness .15)))
  )
  (fp_text user "0.214in/5.448mm" (at 0 -4.9149) (layer Cmts.User)
    (effects (font (size 1 1) (thickness .15)))
  )
  (fp_text user "0.058in/1.46mm" (at -2.72415 4.9149) (layer Cmts.User)
    (effects (font (size 1 1) (thickness .15)))
  )
  (fp_text user "0.136in/3.454mm" (at 7.5819 0) (layer Cmts.User)
    (effects (font (size 1 1) (thickness .15)))
  )
  (fp_text user "0.101in/2.565mm" (at 0 6.1849) (layer Cmts.User)
    (effects (font (size 1 1) (thickness .15)))
  )
  (fp_text user "*" (at -2.97815 -3.6068) (layer F.SilkS)
    (effects (font (size 1 1) (thickness .15)))
  )
  (fp_text user "*" (at -1.6129 -2.4257) (layer F.Fab)
    (effects (font (size 1 1) (thickness .15)))
  )
  (fp_line (start -1.9939 -1.651) (end -1.9939 -2.159) (layer F.Fab) (width .1))
  (fp_line (start -1.9939 -2.159) (end -3.0988 -2.159) (layer F.Fab) (width .1))
  (fp_line (start -3.0988 -2.159) (end -3.0988 -1.651) (layer F.Fab) (width .1))
  (fp_line (start -3.0988 -1.651) (end -1.9939 -1.651) (layer F.Fab) (width .1))
  (fp_line (start -1.9939 -.381) (end -1.9939 -.889) (layer F.Fab) (width .1))
  (fp_line (start -1.9939 -.889) (end -3.0988 -.889) (layer F.Fab) (width .1))
  (fp_line (start -3.0988 -.889) (end -3.0988 -.381) (layer F.Fab) (width .1))
  (fp_line (start -3.0988 -.381) (end -1.9939 -.381) (layer F.Fab) (width .1))
  (fp_line (start -1.9939 .889) (end -1.9939 .381) (layer F.Fab) (width .1))
  (fp_line (start -1.9939 .381) (end -3.0988 .381) (layer F.Fab) (width .1))
  (fp_line (start -3.0988 .381) (end -3.0988 .889) (layer F.Fab) (width .1))
  (fp_line (start -3.0988 .889) (end -1.9939 .889) (layer F.Fab) (width .1))
  (fp_line (start -1.9939 2.159) (end -1.9939 1.651) (layer F.Fab) (width .1))
  (fp_line (start -1.9939 1.651) (end -3.0988 1.651) (layer F.Fab) (width .1))
  (fp_line (start -3.0988 1.651) (end -3.0988 2.159) (layer F.Fab) (width .1))
  (fp_line (start -3.0988 2.159) (end -1.9939 2.159) (layer F.Fab) (width .1))
  (fp_line (start 1.9939 1.651) (end 1.9939 2.159) (layer F.Fab) (width .1))
  (fp_line (start 1.9939 2.159) (end 3.0988 2.159) (layer F.Fab) (width .1))
  (fp_line (start 3.0988 2.159) (end 3.0988 1.651) (layer F.Fab) (width .1))
  (fp_line (start 3.0988 1.651) (end 1.9939 1.651) (layer F.Fab) (width .1))
  (fp_line (start 1.9939 .381) (end 1.9939 .889) (layer F.Fab) (width .1))
  (fp_line (start 1.9939 .889) (end 3.0988 .889) (layer F.Fab) (width .1))
  (fp_line (start 3.0988 .889) (end 3.0988 .381) (layer F.Fab) (width .1))
  (fp_line (start 3.0988 .381) (end 1.9939 .381) (layer F.Fab) (width .1))
  (fp_line (start 1.9939 -.889) (end 1.9939 -.381) (layer F.Fab) (width .1))
  (fp_line (start 1.9939 -.381) (end 3.0988 -.381) (layer F.Fab) (width .1))
  (fp_line (start 3.0988 -.381) (end 3.0988 -.889) (layer F.Fab) (width .1))
  (fp_line (start 3.0988 -.889) (end 1.9939 -.889) (layer F.Fab) (width .1))
  (fp_line (start 1.9939 -2.159) (end 1.9939 -1.651) (layer F.Fab) (width .1))
  (fp_line (start 1.9939 -1.651) (end 3.0988 -1.651) (layer F.Fab) (width .1))
  (fp_line (start 3.0988 -1.651) (end 3.0988 -2.159) (layer F.Fab) (width .1))
  (fp_line (start 3.0988 -2.159) (end 1.9939 -2.159) (layer F.Fab) (width .1))
  (fp_line (start -3.7084 2.4384) (end -3.7084 -2.4384) (layer F.CrtYd) (width .05))
  (fp_line (start -3.7084 -2.4384) (end -2.2479 -2.4384) (layer F.CrtYd) (width .05))
  (fp_line (start -2.2479 -2.4384) (end -2.2479 -2.7559) (layer F.CrtYd) (width .05))
  (fp_line (start -2.2479 -2.7559) (end 2.2479 -2.7559) (layer F.CrtYd) (width .05))
  (fp_line (start 2.2479 -2.7559) (end 2.2479 -2.4384) (layer F.CrtYd) (width .05))
  (fp_line (start 3.7084 -2.4384) (end 2.2479 -2.4384) (layer F.CrtYd) (width .05))
  (fp_line (start 3.7084 -2.4384) (end 3.7084 2.4384) (layer F.CrtYd) (width .05))
  (fp_line (start 3.7084 2.4384) (end 2.2479 2.4384) (layer F.CrtYd) (width .05))
  (fp_line (start 2.2479 2.4384) (end 2.2479 2.7559) (layer F.CrtYd) (width .05))
  (fp_line (start 2.2479 2.7559) (end -2.2479 2.7559) (layer F.CrtYd) (width .05))
  (fp_line (start -2.2479 2.7559) (end -2.2479 2.4384) (layer F.CrtYd) (width .05))
  (fp_line (start -3.7084 2.4384) (end -2.2479 2.4384) (layer F.CrtYd) (width .05))
  (fp_line (start -1.9939 0) (end -1.9939 -4.7879) (layer Cmts.User) (width 0))
  (fp_line (start 1.9939 0) (end 1.9939 -4.7879) (layer Cmts.User) (width 0))
  (fp_line (start -1.9939 -4.4069) (end 1.9939 -4.4069) (layer Cmts.User) (width 0))
  (fp_line (start -1.9939 -4.4069) (end -1.7399 -4.5339) (layer Cmts.User) (width 0))
  (fp_line (start -1.9939 -4.4069) (end -1.7399 -4.2799) (layer Cmts.User) (width 0))
  (fp_line (start -1.7399 -4.5339) (end -1.7399 -4.2799) (layer Cmts.User) (width 0))
  (fp_line (start 1.9939 -4.4069) (end 1.7399 -4.5339) (layer Cmts.User) (width 0))
  (fp_line (start 1.9939 -4.4069) (end 1.7399 -4.2799) (layer Cmts.User) (width 0))
  (fp_line (start 1.7399 -4.5339) (end 1.7399 -4.2799) (layer Cmts.User) (width 0))
  (fp_line (start -3.0988 0) (end -3.0988 -6.6929) (layer Cmts.User) (width 0))
  (fp_line (start 3.0988 0) (end 3.0988 -6.6929) (layer Cmts.User) (width 0))
  (fp_line (start -3.0988 -6.3119) (end 3.0988 -6.3119) (layer Cmts.User) (width 0))
  (fp_line (start -3.0988 -6.3119) (end -2.8448 -6.4389) (layer Cmts.User) (width 0))
  (fp_line (start -3.0988 -6.3119) (end -2.8448 -6.1849) (layer Cmts.User) (width 0))
  (fp_line (start -2.8448 -6.4389) (end -2.8448 -6.1849) (layer Cmts.User) (width 0))
  (fp_line (start 3.0988 -6.3119) (end 2.8448 -6.4389) (layer Cmts.User) (width 0))
  (fp_line (start 3.0988 -6.3119) (end 2.8448 -6.1849) (layer Cmts.User) (width 0))
  (fp_line (start 2.8448 -6.4389) (end 2.8448 -6.1849) (layer Cmts.User) (width 0))
  (fp_line (start 0 -2.5019) (end 4.9149 -2.5019) (layer Cmts.User) (width 0))
  (fp_line (start 0 2.5019) (end 4.9149 2.5019) (layer Cmts.User) (width 0))
  (fp_line (start 4.5339 -2.5019) (end 4.5339 2.5019) (layer Cmts.User) (width 0))
  (fp_line (start 4.5339 -2.5019) (end 4.4069 -2.2479) (layer Cmts.User) (width 0))
  (fp_line (start 4.5339 -2.5019) (end 4.6609 -2.2479) (layer Cmts.User) (width 0))
  (fp_line (start 4.4069 -2.2479) (end 4.6609 -2.2479) (layer Cmts.User) (width 0))
  (fp_line (start 4.5339 2.5019) (end 4.4069 2.2479) (layer Cmts.User) (width 0))
  (fp_line (start 4.5339 2.5019) (end 4.6609 2.2479) (layer Cmts.User) (width 0))
  (fp_line (start 4.4069 2.2479) (end 4.6609 2.2479) (layer Cmts.User) (width 0))
  (fp_line (start -2.72415 -1.905) (end -5.64515 -1.905) (layer Cmts.User) (width 0))
  (fp_line (start -2.72415 -.635) (end -5.64515 -.635) (layer Cmts.User) (width 0))
  (fp_line (start -5.26415 -1.905) (end -5.26415 -3.175) (layer Cmts.User) (width 0))
  (fp_line (start -5.26415 -.635) (end -5.26415 .635) (layer Cmts.User) (width 0))
  (fp_line (start -5.26415 -1.905) (end -5.39115 -2.159) (layer Cmts.User) (width 0))
  (fp_line (start -5.26415 -1.905) (end -5.13715 -2.159) (layer Cmts.User) (width 0))
  (fp_line (start -5.39115 -2.159) (end -5.13715 -2.159) (layer Cmts.User) (width 0))
  (fp_line (start -5.26415 -.635) (end -5.39115 -.381) (layer Cmts.User) (width 0))
  (fp_line (start -5.26415 -.635) (end -5.13715 -.381) (layer Cmts.User) (width 0))
  (fp_line (start -5.39115 -.381) (end -5.13715 -.381) (layer Cmts.User) (width 0))
  (fp_line (start -3.0988 0) (end -3.0988 4.7879) (layer Cmts.User) (width 0))
  (fp_line (start -1.9939 0) (end -1.9939 4.7879) (layer Cmts.User) (width 0))
  (fp_line (start -3.0988 4.4069) (end -4.3688 4.4069) (layer Cmts.User) (width 0))
  (fp_line (start -1.9939 4.4069) (end -.7239 4.4069) (layer Cmts.User) (width 0))
  (fp_line (start -3.0988 4.4069) (end -3.3528 4.2799) (layer Cmts.User) (width 0))
  (fp_line (start -3.0988 4.4069) (end -3.3528 4.5339) (layer Cmts.User) (width 0))
  (fp_line (start -3.3528 4.2799) (end -3.3528 4.5339) (layer Cmts.User) (width 0))
  (fp_line (start -1.9939 4.4069) (end -1.7399 4.2799) (layer Cmts.User) (width 0))
  (fp_line (start -1.9939 4.4069) (end -1.7399 4.5339) (layer Cmts.User) (width 0))
  (fp_line (start -1.7399 4.2799) (end -1.7399 4.5339) (layer Cmts.User) (width 0))
  (fp_line (start -2.1209 2.6289) (end 2.1209 2.6289) (layer F.SilkS) (width .12))
  (fp_line (start 2.1209 -2.6289) (end -2.1209 -2.6289) (layer F.SilkS) (width .12))
  (fp_line (start -1.9939 2.5019) (end 1.9939 2.5019) (layer F.Fab) (width .1))
  (fp_line (start 1.9939 2.5019) (end 1.9939 -2.5019) (layer F.Fab) (width .1))
  (fp_line (start 1.9939 -2.5019) (end -1.9939 -2.5019) (layer F.Fab) (width .1))
  (fp_line (start -1.9939 -2.5019) (end -1.9939 2.5019) (layer F.Fab) (width .1))
  (fp_poly (pts (xy -1.1827 -1.6272) (xy -1.1827 -.1) (xy -.1 -.1) (xy -.1 -1.6272)) (layer F.Paste) (width .1))
  (fp_poly (pts (xy -1.1827 .1) (xy -1.1827 1.6272) (xy -.1 1.6272) (xy -.1 .1)) (layer F.Paste) (width .1))
  (fp_poly (pts (xy .1 -1.6272) (xy .1 -.1) (xy 1.1827 -.1) (xy 1.1827 -1.6272)) (layer F.Paste) (width .1))
  (fp_poly (pts (xy .1 .1) (xy .1 1.6272) (xy 1.1827 1.6272) (xy 1.1827 .1)) (layer F.Paste) (width .1))
  (fp_line (start -3.7084 2.4384) (end -3.7084 -2.4384) (layer F.CrtYd) (width .05))
  (fp_line (start -3.7084 -2.4384) (end -2.2479 -2.4384) (layer F.CrtYd) (width .05))
  (fp_line (start -2.2479 -2.4384) (end -2.2479 -2.7559) (layer F.CrtYd) (width .05))
  (fp_line (start -2.2479 -2.7559) (end 2.2479 -2.7559) (layer F.CrtYd) (width .05))
  (fp_line (start 2.2479 -2.7559) (end 2.2479 -2.4384) (layer F.CrtYd) (width .05))
  (fp_line (start 2.2479 -2.4384) (end 3.7084 -2.4384) (layer F.CrtYd) (width .05))
  (fp_line (start 3.7084 -2.4384) (end 3.7084 2.4384) (layer F.CrtYd) (width .05))
  (fp_line (start 3.7084 2.4384) (end 2.2479 2.4384) (layer F.CrtYd) (width .05))
  (fp_line (start 2.2479 2.4384) (end 2.2479 2.7559) (layer F.CrtYd) (width .05))
  (fp_line (start 2.2479 2.7559) (end -2.2479 2.7559) (layer F.CrtYd) (width .05))
  (fp_line (start -2.2479 2.7559) (end -2.2479 2.4384) (layer F.CrtYd) (width .05))
  (fp_line (start -2.2479 2.4384) (end -3.7084 2.4384) (layer F.CrtYd) (width .05))
  (fp_arc (start 0 -2.5019) (end -.3048 -2.5019) (angle -180)(layer F.Fab) (width .1))
  (pad 1 smd rect (at -2.72415 -1.905) (size 1.4605 .5588) (layers F.Cu F.Paste F.Mask))
  (pad 2 smd rect (at -2.72415 -.635) (size 1.4605 .5588) (layers F.Cu F.Paste F.Mask))
  (pad 3 smd rect (at -2.72415 .635) (size 1.4605 .5588) (layers F.Cu F.Paste F.Mask))
  (pad 4 smd rect (at -2.72415 1.905) (size 1.4605 .5588) (layers F.Cu F.Paste F.Mask))
  (pad 5 smd rect (at 2.72415 1.905) (size 1.4605 .5588) (layers F.Cu F.Paste F.Mask))
  (pad 6 smd rect (at 2.72415 .635) (size 1.4605 .5588) (layers F.Cu F.Paste F.Mask))
  (pad 7 smd rect (at 2.72415 -.635) (size 1.4605 .5588) (layers F.Cu F.Paste F.Mask))
  (pad 8 smd rect (at 2.72415 -1.905) (size 1.4605 .5588) (layers F.Cu F.Paste F.Mask))
  (pad EPAD smd rect (at 0 0) (size 2.5654 3.4544) (layers F.Cu F.Mask))
)
