(kicad_symbol_lib (version 20211014) (generator kicad_symbol_editor)
  (symbol "MP4558DQ-LF-P" (in_bom yes) (on_board yes)
    (property "Reference" "U" (id 0) (at 0 -1.27 0)
      (effects (font (size 1.27 1.27)))
    )
    (property "Value" "MP4558DQ-LF-P" (id 1) (at 0 1.27 0)
      (effects (font (size 1.27 1.27)))
    )
    (property "Footprint" "" (id 2) (at 0 0 0)
      (effects (font (size 1.27 1.27)) hide)
    )
    (property "Datasheet" "" (id 3) (at 0 0 0)
      (effects (font (size 1.27 1.27)) hide)
    )
    (symbol "MP4558DQ-LF-P_0_1"
      (rectangle (start -13.97 13.97) (end 13.97 -13.97)
        (stroke (width 0.1524) (type default) (color 0 0 0 0))
        (fill (type none))
      )
    )
    (symbol "MP4558DQ-LF-P_1_1"
      (pin power_out line (at 16.51 10.16 180) (length 2.54)
        (name "SW" (effects (font (size 1.27 1.27))))
        (number "1" (effects (font (size 1.27 1.27))))
      )
      (pin output line (at 0 16.51 270) (length 2.54)
        (name "BST" (effects (font (size 1.27 1.27))))
        (number "10" (effects (font (size 1.27 1.27))))
      )
      (pin power_out line (at 16.51 7.62 180) (length 2.54)
        (name "SW" (effects (font (size 1.27 1.27))))
        (number "2" (effects (font (size 1.27 1.27))))
      )
      (pin input line (at -16.51 0 0) (length 2.54)
        (name "EN" (effects (font (size 1.27 1.27))))
        (number "3" (effects (font (size 1.27 1.27))))
      )
      (pin input line (at 16.51 -10.16 180) (length 2.54)
        (name "COMP" (effects (font (size 1.27 1.27))))
        (number "4" (effects (font (size 1.27 1.27))))
      )
      (pin input line (at 16.51 0 180) (length 2.54)
        (name "FB" (effects (font (size 1.27 1.27))))
        (number "5" (effects (font (size 1.27 1.27))))
      )
      (pin power_in line (at 0 -16.51 90) (length 2.54)
        (name "GND" (effects (font (size 1.27 1.27))))
        (number "6" (effects (font (size 1.27 1.27))))
      )
      (pin input line (at -16.51 -10.16 0) (length 2.54)
        (name "FREQ" (effects (font (size 1.27 1.27))))
        (number "7" (effects (font (size 1.27 1.27))))
      )
      (pin power_in line (at -16.51 10.16 0) (length 2.54)
        (name "VIN" (effects (font (size 1.27 1.27))))
        (number "8" (effects (font (size 1.27 1.27))))
      )
      (pin power_in line (at -16.51 7.62 0) (length 2.54)
        (name "VIN" (effects (font (size 1.27 1.27))))
        (number "9" (effects (font (size 1.27 1.27))))
      )
    )
  )
)
